Geospatial Distribution Dynamics With griddy • griddy
…
griddy works on long spatial panels: one row per place
per period, keyed by explicit id, time, and
value columns. The bundled usjoin panel — 48
contiguous US states, per-capita personal income, 1929 to 2009 — mirrors
the canonical PySAL giddy example used in Rey (2001).

data(usjoin)

usjoin

## # A tibble: 3,888 × 4
##    name    state_fips  year income
##    <chr>        <int> <int>  <int>
##  1 Alabama          1  1929    323
##  2 Alabama          1  1930    267
##  3 Alabama          1  1931    224
##  4 Alabama          1  1932    162
##  5 Alabama          1  1933    166
##  6 Alabama          1  1934    211
##  7 Alabama          1  1935    217
##  8 Alabama          1  1936    251
##  9 Alabama          1  1937    267
## 10 Alabama          1  1938    244
## # ℹ 3,878 more rows
…
